ISSS608-VAA - Take-home Exercise 4: Prototyping Modules for Shiny Application
…
data$mean_temperature_c <- coalesce(data$mean_temperature_c,
                                       data$mean_temperature_a_c)
data$maximum_temperature_c <- coalesce(data$maximum_temperature_c,
                                          data$maximum_temperature_a_c)
data$minimum_temperature_c <- coalesce(data$minimum_temperature_c,
                                          data$minimum_temperature_a_c)

data %>% select(-c(mean_temperature_a_c,
                     maximum_temperature_a_c,
                     minimum_temperature_a_c, 
                     mean_wind_speed_km_h, 
                     max_wind_speed_km_h))

# A tibble: 168,439 × 11
   station    year  month day   daily_rainfall_total_mm highest_30_min_rainfal…¹
   <chr>      <chr> <chr> <chr> <chr>                   <chr>                   
 1 Paya Lebar 1981  1     1     0                       "\u0097"                
 2 Paya Lebar 1981  1     2     0.4                     "\u0097"                
 3 Paya Lebar 1981  1     3     0                       "\u0097"                
 4 Paya Lebar 1981  1     4     3.3                     "\u0097"                
 5 Paya Lebar 1981  1     5     0                       "\u0097"                
 6 Paya Lebar 1981  1     6     0.8                     "\u0097"                
 7 Paya Lebar 1981  1     7     4.6                     "\u0097"                
 8 Paya Lebar 1981  1     8     2.3                     "\u0097"                
 9 Paya Lebar 1981  1     9     0.3                     "\u0097"                
10 Paya Lebar 1981  1     10    0                       "\u0097"                
# ℹ 168,429 more rows
# ℹ abbreviated name: ¹​highest_30_min_rainfall_mm
# ℹ 5 more variables: highest_60_min_rainfall_mm <chr>,
#   highest_120_min_rainfall_mm <chr>, mean_temperature_c <chr>,
#   maximum_temperature_c <chr>, minimum_temperature_c <chr>
…
